module siem-data-producer

go 1.22

require (
	github.com/gin-gonic/gin v1.7.1
	github.com/go-baa/pool v1.1.0
	github.com/lib/pq v1.10.2
	github.com/nu7hatch/gouuid v0.0.0-20131221200532-179d4d0c4d8d
	github.com/sirupsen/logrus v1.8.1
	github.com/swaggo/files v0.0.0-20210815190702-a29dd2bc99b2
	github.com/swaggo/gin-swagger v1.3.1
	github.com/swaggo/swag v1.7.3
	github.com/t-tomalak/logrus-easy-formatter v0.0.0-20190827215021-c074f06c5816
	github.com/thinkerou/favicon v0.1.0
	gopkg.in/alecthomas/kingpin.v2 v2.2.6
	gorm.io/driver/sqlite v1.1.4
	gorm.io/gorm v1.21.9
)

require (
	github.com/KyleBanks/depth v1.2.1 // indirect
	github.com/PuerkitoBio/purell v1.1.1 // indirect
	github.com/PuerkitoBio/urlesc v0.0.0-20170810143723-de5bf2ad4578 // indirect
	github.com/alecthomas/template v0.0.0-20190718012654-fb15b899a751 // indirect
	github.com/alecthomas/units v0.0.0-20210927113745-59d0afb8317a // indirect
	github.com/gin-contrib/sse v0.1.0 // indirect
	github.com/go-openapi/jsonpointer v0.19.5 // indirect
	github.com/go-openapi/jsonreference v0.19.5 // indirect
	github.com/go-openapi/spec v0.20.3 // indirect
	github.com/go-openapi/swag v0.19.14 // indirect
	github.com/go-playground/locales v0.13.0 // indirect
	github.com/go-playground/universal-translator v0.17.0 // indirect
	github.com/go-playground/validator/v10 v10.4.1 // indirect
	github.com/golang/protobuf v1.3.3 // indirect
	github.com/jinzhu/inflection v1.0.0 // indirect
	github.com/jinzhu/now v1.1.2 // indirect
	github.com/josharian/intern v1.0.0 // indirect
	github.com/json-iterator/go v1.1.9 // indirect
	github.com/leodido/go-urn v1.2.0 // indirect
	github.com/mailru/easyjson v0.7.6 // indirect
	github.com/mattn/go-isatty v0.0.12 // indirect
	github.com/mattn/go-sqlite3 v1.14.5 // indirect
	github.com/modern-go/concurrent v0.0.0-20180306012644-bacd9c7ef1dd // indirect
	github.com/modern-go/reflect2 v1.0.1 // indirect
	github.com/ugorji/go/codec v1.1.13 // indirect
	golang.org/x/crypto v0.0.0-20200622213623-75b288015ac9 // indirect
	golang.org/x/net v0.0.0-20210805182204-aaa1db679c0d // indirect
	golang.org/x/sys v0.0.0-20210423082822-04245dca01da // indirect
	golang.org/x/text v0.3.6 // indirect
	golang.org/x/tools v0.1.0 // indirect
	gopkg.in/yaml.v2 v2.4.0 // indirect
)
